…
check out my table

``` r
print(results_df)
```

    ## # A tibble: 49 × 2
    ##    group_size prob_shared_birthdays
    ##         <int>                 <dbl>
    ##  1          2                0.0031
    ##  2          3                0.0073
    ##  3          4                0.0177
    ##  4          5                0.0282
    ##  5          6                0.0425
    ##  6          7                0.0592
    ##  7          8                0.0774
    ##  8          9                0.0952
    ##  9         10                0.118 
    ## 10         11                0.136 
    ## # ℹ 39 more rows
…
